{
  "implicitDependencies": {
    "package.json": {
      "dependencies": "*",
      "devDependencies": "*"
    },
    ".eslintrc.json": "*"
  },
  "affected": {
    "defaultBase": "master"
  },
  "npmScope": "doesrobbiedream",
  "tasksRunnerOptions": {
    "default": {
      "runner": "@nrwl/workspace/tasks-runners/default",
      "options": {
        "cacheableOperations": ["build", "lint", "test", "e2e"]
      }
    }
  },
  "projects": {
    "ng-core": {
      "tags": []
    },
    "themify": {
      "tags": []
    },
    "ts-utils": {
      "tags": []
    },
    "nest-core": {
      "tags": []
    },
    "nest-sandbox": {
      "tags": []
    },
    "nest-ms-sandbox": {
      "tags": []
    },
    "authentication-commons": {
      "tags": []
    },
    "orchestrator-commons": {
      "tags": []
    },
    "authentication-server": {
      "tags": []
    },
    "authentication-client": {
      "tags": []
    },
    "orchestrator-client": {
      "tags": []
    },
    "orchestrator-server": {
      "tags": []
    },
    "notification-server": {
      "tags": []
    },
    "migrations": {
      "tags": []
    },
    "console": {
      "tags": []
    }
  }
}
