{
  "cli": "nx",
  "id": "deployment-library",
  "type": "object",
  "properties": {
    "library": {
      "type": "string",
      "description": "Library name",
      "$default": {
        "$source": "argv",
        "index": 0
      }
    },
    "all": {
      "type": "boolean",
      "description": "Runs the generator for all registered libraries"
    },
    "exclude": {
      "type": "string",
      "description": "When combined with all, allows exclusion over generators run. [Comma separated values]"
    }
  }
}
